\relax 
\@writefile{toc}{\contentsline {section}{\numberline {0.1}Cas test BCSSTK16 locally = 0}{1}}
\@writefile{lot}{\contentsline {table}{\numberline {1}{\ignorespaces BCSSTK16: method = NOREC}}{1}}
\@writefile{lot}{\contentsline {table}{\numberline {2}{\ignorespaces BCSSTK16: method = 0}}{1}}
\@writefile{lot}{\contentsline {table}{\numberline {3}{\ignorespaces BCSSTK16: method = 1}}{1}}
\@writefile{lot}{\contentsline {table}{\numberline {4}{\ignorespaces BCSSTK16: method = 2}}{1}}
\@writefile{lot}{\contentsline {table}{\numberline {5}{\ignorespaces BCSSTK16: n = 4884 nnzA = 290378, Number of locally levels = 0}}{2}}
\@writefile{lot}{\contentsline {table}{\numberline {6}{\ignorespaces BCSSTK16: n = 4884 nnzA = 290378, Number of locally levels = 0}}{2}}
\@writefile{lot}{\contentsline {table}{\numberline {7}{\ignorespaces BCSSTK16: n = 4884 nnzA = 290378, Number of locally levels = 0}}{2}}
\@writefile{toc}{\contentsline {section}{\numberline {0.2}Cas test BCSSTK16 locally = 1}{3}}
\@writefile{lot}{\contentsline {table}{\numberline {8}{\ignorespaces BCSSTK16: method = NOREC}}{3}}
\@writefile{lot}{\contentsline {table}{\numberline {9}{\ignorespaces BCSSTK16: method = 0}}{3}}
\@writefile{lot}{\contentsline {table}{\numberline {10}{\ignorespaces BCSSTK16: method = 1}}{3}}
\@writefile{lot}{\contentsline {table}{\numberline {11}{\ignorespaces BCSSTK16: method = 2}}{3}}
\@writefile{lot}{\contentsline {table}{\numberline {12}{\ignorespaces BCSSTK16: n = 4884 nnzA = 290378, Number of locally levels = 1}}{4}}
\@writefile{lot}{\contentsline {table}{\numberline {13}{\ignorespaces BCSSTK16: n = 4884 nnzA = 290378, Number of locally levels = 1}}{4}}
\@writefile{lot}{\contentsline {table}{\numberline {14}{\ignorespaces BCSSTK16: n = 4884 nnzA = 290378, Number of locally levels = 1}}{4}}
\@writefile{toc}{\contentsline {section}{\numberline {0.3}Cas test BCSSTK16 locally = ALL}{5}}
\@writefile{lot}{\contentsline {table}{\numberline {15}{\ignorespaces BCSSTK16: method = NOREC}}{5}}
\@writefile{lot}{\contentsline {table}{\numberline {16}{\ignorespaces BCSSTK16: method = 0}}{5}}
\@writefile{lot}{\contentsline {table}{\numberline {17}{\ignorespaces BCSSTK16: method = 1}}{5}}
\@writefile{lot}{\contentsline {table}{\numberline {18}{\ignorespaces BCSSTK16: method = 2}}{5}}
\@writefile{lot}{\contentsline {table}{\numberline {19}{\ignorespaces BCSSTK16: n = 4884 nnzA = 290378, Number of locally levels = ALL}}{6}}
\@writefile{lot}{\contentsline {table}{\numberline {20}{\ignorespaces BCSSTK16: n = 4884 nnzA = 290378, Number of locally levels = ALL}}{6}}
\@writefile{lot}{\contentsline {table}{\numberline {21}{\ignorespaces BCSSTK16: n = 4884 nnzA = 290378, Number of locally levels = ALL}}{6}}
