<?xml version="1.0" encoding="UTF-8" standalone="no"?>
<!-- Created with Inkscape (http://www.inkscape.org/) -->
<svg
   xmlns:dc="http://purl.org/dc/elements/1.1/"
   xmlns:cc="http://web.resource.org/cc/"
   xmlns:rdf="http://www.w3.org/1999/02/22-rdf-syntax-ns#"
   xmlns:svg="http://www.w3.org/2000/svg"
   xmlns="http://www.w3.org/2000/svg"
   xmlns:sodipodi="http://sodipodi.sourceforge.net/DTD/sodipodi-0.dtd"
   xmlns:inkscape="http://www.inkscape.org/namespaces/inkscape"
   width="210mm"
   height="297mm"
   id="svg3299"
   sodipodi:version="0.32"
   inkscape:version="0.44.1"
   sodipodi:docbase="/home/jeremie/SARGEjeremie/travail/web/logo"
   sodipodi:docname="hips-logo-splatch.svg"
   inkscape:export-filename="/home/jeremie/SARGEjeremie/travail/web/logo/hips-logo-splatch.ico"
   inkscape:export-xdpi="300"
   inkscape:export-ydpi="300">
  <defs
     id="defs3301" />
  <sodipodi:namedview
     id="base"
     pagecolor="#ffffff"
     bordercolor="#666666"
     borderopacity="1.0"
     inkscape:pageopacity="0.0"
     inkscape:pageshadow="2"
     inkscape:zoom="0.9899495"
     inkscape:cx="-96.251012"
     inkscape:cy="518.35914"
     inkscape:document-units="px"
     inkscape:current-layer="layer7"
     inkscape:window-width="1270"
     inkscape:window-height="821"
     inkscape:window-x="0"
     inkscape:window-y="25" />
  <metadata
     id="metadata3304">
    <rdf:RDF>
      <cc:Work
         rdf:about="">
        <dc:format>image/svg+xml</dc:format>
        <dc:type
           rdf:resource="http://purl.org/dc/dcmitype/StillImage" />
      </cc:Work>
    </rdf:RDF>
  </metadata>
  <g
     inkscape:groupmode="layer"
     id="layer4"
     inkscape:label="hips-ombre"
     style="display:inline" />
  <g
     inkscape:groupmode="layer"
     id="layer5"
     inkscape:label="hips"
     style="display:inline" />
  <g
     inkscape:groupmode="layer"
     id="layer6"
     inkscape:label="tache-ombre"
     style="display:inline" />
  <g
     inkscape:groupmode="layer"
     id="layer7"
     inkscape:label="tache">
    <g
       id="g1893"
       transform="translate(119.3487,244.9139)">
      <path
         inkscape:export-ydpi="143.6792"
         inkscape:export-xdpi="143.6792"
         inkscape:export-filename="/home/jeremie/hips-logo.jpg"
         id="path3284"
         d="M 168.11167,261.0342 C 167.37074,261.0968 166.78887,261.99507 166.78887,263.40617 C 166.78887,265.93161 165.47791,266.35462 163.09405,264.59216 C 161.9442,263.74206 160.85413,263.04127 160.67647,263.04127 C 160.49878,263.04127 160.00153,264.02654 159.58173,265.23076 C 158.83248,267.38015 157.09913,268.13513 156.20624,266.69044 C 155.95722,266.28755 154.91037,266.16384 153.90269,266.41675 C 152.42748,266.78701 151.68759,266.41448 150.07106,264.4781 C 148.87231,263.04221 147.7105,262.29081 147.19733,262.60791 C 145.72715,263.51658 146.25005,265.78976 148.26929,267.26062 C 149.79763,268.37395 150.12046,269.05298 149.75176,270.52207 C 149.14104,272.95544 147.47309,273.50977 144.87099,272.16418 C 143.71209,271.56492 142.25437,271.06943 141.63236,271.06943 C 140.00578,271.06943 140.23581,273.80078 141.90605,274.33088 C 142.67574,274.57517 144.15341,275.45389 145.19029,276.2695 C 146.65471,277.42144 146.99224,278.19586 146.67276,279.71343 C 146.44659,280.78795 146.10268,282.39345 145.92013,283.29419 C 145.7138,284.31213 144.62626,285.32534 143.04641,285.98543 C 139.74514,287.36481 139.48735,289.70783 142.70429,289.06443 C 144.47071,288.71114 144.89381,288.87639 144.89381,289.9083 C 144.89381,291.81249 142.80632,294.42417 141.29024,294.42417 C 140.55931,294.42417 139.5509,294.92157 139.05511,295.51891 C 137.70625,297.14423 140.19638,297.86651 141.88323,296.33997 C 142.60431,295.68737 144.91128,294.63835 147.01488,294.01363 C 151.27164,292.74948 152.43413,293.19213 153.21849,296.31718 C 153.63223,297.96564 153.93551,298.0831 156.29749,297.63998 C 159.2287,297.0901 160.17892,297.93156 160.19754,301.0611 C 160.20365,302.09807 160.43174,303.16544 160.69929,303.43305 C 160.96693,303.70065 161.83453,303.91201 162.61512,303.91201 C 163.84942,303.91201 163.9561,303.57433 163.52741,301.28916 C 162.95236,298.22389 164.53589,295.88382 167.17659,295.88382 C 168.27995,295.88382 169.06557,295.20402 169.66257,293.76275 C 170.66142,291.35137 172.56564,290.6093 175.41002,291.50483 C 176.48645,291.84374 179.10839,292.32583 181.24872,292.57676 C 184.72979,292.98492 185.12137,292.905 184.89787,291.73289 C 184.75491,290.98285 183.86264,290.30173 182.8224,290.15918 C 180.98505,289.90739 178.4662,288.1103 178.4662,287.05739 C 178.4662,286.74256 179.86202,286.54805 181.56802,286.62403 C 183.89998,286.72792 184.66978,286.48921 184.66981,285.66613 C 184.66981,284.9462 183.79515,284.49752 182.11538,284.3433 C 178.69756,284.02956 177.89809,283.11741 179.49253,281.35554 C 180.73779,279.97963 180.71504,279.90506 178.58023,278.80114 C 176.57416,277.76376 176.40847,277.41285 176.80128,274.9923 C 177.22173,272.40167 177.17839,272.33034 175.29599,272.80281 C 173.08183,273.35852 172.90232,272.78605 174.22403,269.13081 C 174.88804,267.29452 174.88742,266.48714 174.24685,265.84654 C 173.05701,264.6567 171.16788,266.35656 171.16785,268.60624 C 171.16785,269.80234 170.74452,270.33959 169.82223,270.33959 C 167.72095,270.33959 167.58492,269.773 168.81869,265.91497 C 169.66277,263.27565 169.77324,262.08001 169.18363,261.49034 C 168.82702,261.13376 168.44847,261.00576 168.11167,261.0342 z M 184.37333,265.9606 C 182.75577,265.9606 179.19605,269.38728 179.19605,270.93258 C 179.19605,271.58897 180.1795,271.30272 182.29783,270.04311 C 185.72924,268.00272 186.75865,265.9606 184.37333,265.9606 z M 134.99542,269.60978 C 134.81844,269.60978 134.67612,269.93819 134.67612,270.33959 C 134.67612,270.74101 135.02642,271.06943 135.45157,271.06943 C 135.87661,271.06943 136.01895,270.74101 135.77087,270.33959 C 135.52273,269.93819 135.17247,269.60978 134.99542,269.60978 z M 170.46083,297.06981 C 170.08319,297.0212 169.92661,297.26805 169.82223,297.75404 C 169.68873,298.37538 169.97719,299.36072 170.46083,299.94354 C 171.4656,301.15417 173.76933,301.35353 174.42931,300.28565 C 174.6736,299.8904 173.79232,298.9051 172.46787,298.09613 C 171.43202,297.46344 170.83847,297.11841 170.46083,297.06981 z M 153.81148,299.76108 C 153.39697,299.71624 152.60667,300.26222 151.4395,301.3804 C 149.16762,303.55704 148.617,305.74345 150.18509,306.30678 C 151.52166,306.78695 152.45654,305.80738 153.53779,302.81727 C 154.2529,300.83969 154.3444,299.81874 153.81148,299.76108 z "
         style="fill:#d45500;display:inline" />
      <path
         inkscape:export-ydpi="143.6792"
         inkscape:export-xdpi="143.6792"
         inkscape:export-filename="/home/jeremie/hips-logo.jpg"
         id="path3292"
         d="M 168.53165,256.11529 C 167.79072,256.17789 167.20885,257.07616 167.20885,258.48727 C 167.20885,261.0127 165.89789,261.43571 163.51403,259.67325 C 162.36418,258.82315 161.27411,258.12236 161.09645,258.12236 C 160.91876,258.12236 160.42151,259.10763 160.00171,260.31185 C 159.25246,262.46124 157.51911,263.21622 156.62622,261.77154 C 156.3772,261.36864 155.33035,261.24494 154.32267,261.49784 C 152.84746,261.8681 152.10757,261.49558 150.49104,259.55919 C 149.29229,258.1233 148.13048,257.37191 147.61731,257.689 C 146.14713,258.59768 146.67003,260.87086 148.68927,262.34171 C 150.21761,263.45504 150.54044,264.13407 150.17174,265.60316 C 149.56102,268.03654 147.89307,268.59086 145.29097,267.24527 C 144.13207,266.64601 142.67435,266.15052 142.05234,266.15052 C 140.42576,266.15052 140.65579,268.88188 142.32603,269.41198 C 143.09572,269.65627 144.57339,270.53498 145.61027,271.35059 C 147.07469,272.50253 147.41222,273.27695 147.09274,274.79453 C 146.86657,275.86904 146.52266,277.47454 146.34011,278.37528 C 146.13378,279.39322 145.04624,280.40643 143.46638,281.06653 C 140.16512,282.44591 139.90733,284.78892 143.12427,284.14553 C 144.89069,283.79223 145.31379,283.95749 145.31379,284.9894 C 145.31379,286.89358 143.2263,289.50526 141.71022,289.50526 C 140.97929,289.50526 139.97088,290.00266 139.47509,290.60001 C 138.12623,292.22532 140.61636,292.94761 142.30321,291.42106 C 143.02429,290.76846 145.33126,289.71944 147.43486,289.09472 C 151.69162,287.83057 152.85411,288.27322 153.63847,291.39827 C 154.05221,293.04673 154.35549,293.1642 156.71746,292.72108 C 159.64868,292.17119 160.5989,293.01265 160.61752,296.14219 C 160.62363,297.17916 160.85172,298.24653 161.11927,298.51414 C 161.38691,298.78175 162.25451,298.99311 163.0351,298.99311 C 164.2694,298.99311 164.37608,298.65543 163.94739,296.37025 C 163.37234,293.30498 164.95587,290.96491 167.59657,290.96491 C 168.69993,290.96491 169.48555,290.28512 170.08254,288.84384 C 171.0814,286.43246 172.98562,285.69039 175.83,286.58592 C 176.90643,286.92484 179.52837,287.40692 181.6687,287.65785 C 185.14977,288.06601 185.54135,287.98609 185.31785,286.81398 C 185.17488,286.06394 184.28262,285.38282 183.24238,285.24027 C 181.40503,284.98848 178.88618,283.19139 178.88618,282.13848 C 178.88618,281.82365 180.282,281.62915 181.988,281.70513 C 184.31996,281.80901 185.08976,281.57031 185.08979,280.74723 C 185.08979,280.02729 184.21513,279.57862 182.53536,279.42439 C 179.11754,279.11065 178.31807,278.1985 179.91251,276.43663 C 181.15777,275.06072 181.13502,274.98615 179.00021,273.88223 C 176.99414,272.84485 176.82845,272.49394 177.22126,270.07339 C 177.64171,267.48277 177.59837,267.41143 175.71597,267.8839 C 173.50181,268.43961 173.3223,267.86714 174.64401,264.21191 C 175.30802,262.37561 175.3074,261.56823 174.66683,260.92764 C 173.47699,259.7378 171.58786,261.43765 171.58783,263.68733 C 171.58783,264.88344 171.1645,265.42068 170.24221,265.42068 C 168.14093,265.42068 168.0049,264.85409 169.23867,260.99606 C 170.08275,258.35674 170.19322,257.16111 169.60361,256.57144 C 169.247,256.21485 168.86845,256.08686 168.53165,256.11529 z M 184.79331,261.04169 C 183.17575,261.04169 179.61603,264.46837 179.61603,266.01368 C 179.61603,266.67007 180.59948,266.38382 182.71781,265.1242 C 186.14922,263.08381 187.17863,261.04169 184.79331,261.04169 z M 135.4154,264.69087 C 135.23842,264.69087 135.0961,265.01929 135.0961,265.42068 C 135.0961,265.82211 135.4464,266.15052 135.87155,266.15052 C 136.29659,266.15052 136.43893,265.82211 136.19085,265.42068 C 135.94271,265.01929 135.59245,264.69087 135.4154,264.69087 z M 170.88081,292.1509 C 170.50317,292.1023 170.34659,292.34914 170.24221,292.83514 C 170.10871,293.45648 170.39717,294.44181 170.88081,295.02463 C 171.88558,296.23526 174.18931,296.43462 174.84929,295.36675 C 175.09358,294.9715 174.2123,293.98619 172.88785,293.17722 C 171.852,292.54453 171.25845,292.19951 170.88081,292.1509 z M 154.23146,294.84218 C 153.81695,294.79734 153.02665,295.34331 151.85948,296.46149 C 149.5876,298.63814 149.03698,300.82454 150.60507,301.38787 C 151.94164,301.86804 152.87652,300.88847 153.95777,297.89836 C 154.67288,295.92078 154.76438,294.89984 154.23146,294.84218 z "
         style="fill:#f60;display:inline" />
    </g>
  </g>
  <g
     inkscape:groupmode="layer"
     id="layer8"
     inkscape:label="i-point" />
  <g
     inkscape:label="autre"
     inkscape:groupmode="layer"
     id="layer1"
     style="display:inline" />
</svg>
